…
weather [ 8719 x 14]. Hourly Weather Data.

planes [3322 x 9]. Plane data.

airports [1397 x 7]. Airport data.

library(nycflights13)

## Warning: package 'nycflights13' was built under R version 3.4.4

library(dplyr)
library(ggplot2)
flights

## # A tibble: 336,776 x 19
##     year month   day dep_time sched_dep_time dep_delay arr_time
##    <int> <int> <int>    <int>          <int>     <dbl>    <int>
##  1  2013     1     1      517            515      2.00      830
##  2  2013     1     1      533            529      4.00      850
##  3  2013     1     1      542            540      2.00      923
##  4  2013     1     1      544            545     -1.00     1004
##  5  2013     1     1      554            600     -6.00      812
##  6  2013     1     1      554            558     -4.00      740
##  7  2013     1     1      555            600     -5.00      913
##  8  2013     1     1      557            600     -3.00      709
##  9  2013     1     1      557            600     -3.00      838
## 10  2013     1     1      558            600     -2.00      753
## # ... with 336,766 more rows, and 12 more variables: sched_arr_time <int>,
## #   arr_delay <dbl>, carrier <chr>, flight <int>, tailnum <chr>,
## #   origin <chr>, dest <chr>, air_time <dbl>, distance <dbl>, hour <dbl>,
## #   minute <dbl>, time_hour <dttm>
…
distinct()

mutate() and transmute()

sample_n() and sample_frac()

Filtering Rows

Filter all flights on your birthday.

#My birthday is April 4th, so I filter for that date in the flights tbl.
filter(flights, month == 4 & day == 4)

## # A tibble: 985 x 19
##     year month   day dep_time sched_dep_time dep_delay arr_time
##    <int> <int> <int>    <int>          <int>     <dbl>    <int>
##  1  2013     4     4       14           2245     89.0       124
##  2  2013     4     4      454            500    - 6.00      636
##  3  2013     4     4      511            515    - 4.00      808
##  4  2013     4     4      529            530    - 1.00      829
##  5  2013     4     4      538            540    - 2.00      847
##  6  2013     4     4      542            545    - 3.00      904
##  7  2013     4     4      544            545    - 1.00      913
##  8  2013     4     4      550            600    -10.0       900
##  9  2013     4     4      551            600    - 9.00      838
## 10  2013     4     4      552            600    - 8.00      703
## # ... with 975 more rows, and 12 more variables: sched_arr_time <int>,
## #   arr_delay <dbl>, carrier <chr>, flight <int>, tailnum <chr>,
## #   origin <chr>, dest <chr>, air_time <dbl>, distance <dbl>, hour <dbl>,
## #   minute <dbl>, time_hour <dttm>

Filter all flights in rows 567 - 589

#We don't need to use the dplyr function filter to select a set of rows.
flights[567:589, ]

## # A tibble: 23 x 19
##     year month   day dep_time sched_dep_time dep_delay arr_time
##    <int> <int> <int>    <int>          <int>     <dbl>    <int>
##  1  2013     1     1     1653           1700    - 7.00     2005
##  2  2013     1     1     1654           1644     10.0      1752
##  3  2013     1     1     1654           1700    - 6.00     2020
##  4  2013     1     1     1655           1621     34.0      1804
##  5  2013     1     1     1655           1700    - 5.00     1953
##  6  2013     1     1     1655           1700    - 5.00     2027
##  7  2013     1     1     1655           1655      0        2025
##  8  2013     1     1     1656           1700    - 4.00     1941
##  9  2013     1     1     1657           1650      7.00     1921
## 10  2013     1     1     1657           1630     27.0      1948
## # ... with 13 more rows, and 12 more variables: sched_arr_time <int>,
## #   arr_delay <dbl>, carrier <chr>, flight <int>, tailnum <chr>,
## #   origin <chr>, dest <chr>, air_time <dbl>, distance <dbl>, hour <dbl>,
## #   minute <dbl>, time_hour <dttm>

Arranging Rows

Use arrange() to order the data by year, month and day

#This uses the dplyr function arrange to sort the data by year, month and day.
arrange(flights, year, month, day)

## # A tibble: 336,776 x 19
##     year month   day dep_time sched_dep_time dep_delay arr_time
##    <int> <int> <int>    <int>          <int>     <dbl>    <int>
##  1  2013     1     1      517            515      2.00      830
##  2  2013     1     1      533            529      4.00      850
##  3  2013     1     1      542            540      2.00      923
##  4  2013     1     1      544            545     -1.00     1004
##  5  2013     1     1      554            600     -6.00      812
##  6  2013     1     1      554            558     -4.00      740
##  7  2013     1     1      555            600     -5.00      913
##  8  2013     1     1      557            600     -3.00      709
##  9  2013     1     1      557            600     -3.00      838
## 10  2013     1     1      558            600     -2.00      753
## # ... with 336,766 more rows, and 12 more variables: sched_arr_time <int>,
## #   arr_delay <dbl>, carrier <chr>, flight <int>, tailnum <chr>,
## #   origin <chr>, dest <chr>, air_time <dbl>, distance <dbl>, hour <dbl>,
## #   minute <dbl>, time_hour <dttm>

Use desc() to arrange flights by arrival delay.

#Adding desc() to the argument of arrange will sort the data in descending order (ascending is the default). The data is then sorted by arrival delay in descending order.
arrange(flights, desc(arr_delay))

## # A tibble: 336,776 x 19
##     year month   day dep_time sched_dep_time dep_delay arr_time
##    <int> <int> <int>    <int>          <int>     <dbl>    <int>
##  1  2013     1     9      641            900      1301     1242
##  2  2013     6    15     1432           1935      1137     1607
##  3  2013     1    10     1121           1635      1126     1239
##  4  2013     9    20     1139           1845      1014     1457
##  5  2013     7    22      845           1600      1005     1044
##  6  2013     4    10     1100           1900       960     1342
##  7  2013     3    17     2321            810       911      135
##  8  2013     7    22     2257            759       898      121
##  9  2013    12     5      756           1700       896     1058
## 10  2013     5     3     1133           2055       878     1250
## # ... with 336,766 more rows, and 12 more variables: sched_arr_time <int>,
## #   arr_delay <dbl>, carrier <chr>, flight <int>, tailnum <chr>,
## #   origin <chr>, dest <chr>, air_time <dbl>, distance <dbl>, hour <dbl>,
## #   minute <dbl>, time_hour <dttm>

Select

Select columns containing date information.

#This uses the dplyr function select to take out only the columns with date information (year, month, day).
select(flights, year, month, day)

## # A tibble: 336,776 x 3
##     year month   day
##    <int> <int> <int>
##  1  2013     1     1
##  2  2013     1     1
##  3  2013     1     1
##  4  2013     1     1
##  5  2013     1     1
##  6  2013     1     1
##  7  2013     1     1
##  8  2013     1     1
##  9  2013     1     1
## 10  2013     1     1
## # ... with 336,766 more rows

Select columns including only plane information.

#Again, this uses the select function to take out the columns with plane information (carrier, tailnum)
select(flights, carrier, tailnum)

## # A tibble: 336,776 x 2
##    carrier tailnum
##    <chr>   <chr>  
##  1 UA      N14228 
##  2 UA      N24211 
##  3 AA      N619AA 
##  4 B6      N804JB 
##  5 DL      N668DN 
##  6 UA      N39463 
##  7 B6      N516JB 
##  8 EV      N829AS 
##  9 B6      N593JB 
## 10 AA      N3ALAA 
## # ... with 336,766 more rows

Rename tailnum to tail_num

#The rename function can change the column named "tailnum" to "tail_num", note the new name goes first in the second argument of the function.
flights <- rename(flights, tail_num = tailnum)

Mutating Rows

Create a variable called gain which describes the difference between arrival delap and departure delay.

#The mutate function can add new columns to a table that use data from existing columns. This can be used to add a new column "gain" which is the difference of arrival delay and departure delay.
mutate(flights, gain = arr_delay - dep_delay)

## # A tibble: 336,776 x 20
##     year month   day dep_time sched_dep_time dep_delay arr_time
##    <int> <int> <int>    <int>          <int>     <dbl>    <int>
##  1  2013     1     1      517            515      2.00      830
##  2  2013     1     1      533            529      4.00      850
##  3  2013     1     1      542            540      2.00      923
##  4  2013     1     1      544            545     -1.00     1004
##  5  2013     1     1      554            600     -6.00      812
##  6  2013     1     1      554            558     -4.00      740
##  7  2013     1     1      555            600     -5.00      913
##  8  2013     1     1      557            600     -3.00      709
##  9  2013     1     1      557            600     -3.00      838
## 10  2013     1     1      558            600     -2.00      753
## # ... with 336,766 more rows, and 13 more variables: sched_arr_time <int>,
## #   arr_delay <dbl>, carrier <chr>, flight <int>, tail_num <chr>,
## #   origin <chr>, dest <chr>, air_time <dbl>, distance <dbl>, hour <dbl>,
## #   minute <dbl>, time_hour <dttm>, gain <dbl>

Create a variable called speed which is distance over time in hours.

#The mutate function is used again to add a speed variable to the tbl.
mutate(flights, speed = distance/(air_time/60))

## # A tibble: 336,776 x 20
##     year month   day dep_time sched_dep_time dep_delay arr_time
##    <int> <int> <int>    <int>          <int>     <dbl>    <int>
##  1  2013     1     1      517            515      2.00      830
##  2  2013     1     1      533            529      4.00      850
##  3  2013     1     1      542            540      2.00      923
##  4  2013     1     1      544            545     -1.00     1004
##  5  2013     1     1      554            600     -6.00      812
##  6  2013     1     1      554            558     -4.00      740
##  7  2013     1     1      555            600     -5.00      913
##  8  2013     1     1      557            600     -3.00      709
##  9  2013     1     1      557            600     -3.00      838
## 10  2013     1     1      558            600     -2.00      753
## # ... with 336,766 more rows, and 13 more variables: sched_arr_time <int>,
## #   arr_delay <dbl>, carrier <chr>, flight <int>, tail_num <chr>,
## #   origin <chr>, dest <chr>, air_time <dbl>, distance <dbl>, hour <dbl>,
## #   minute <dbl>, time_hour <dttm>, speed <dbl>
…
#Each individual plane is represented as a dot on the graph, with its average distance travelled plotted against its average delay in arrival. The size of the dot gives an idea of how many flights the plane has made, with a key to the sizes given on the graph.

Find the number of planes and the number of flights that go to each possible destination.

#First, you have to group by the destination of the flights. Then, to summarise - first the number of planes is equal to the number of distinct tail numbers that go to a particular destination, this can be obtained with the n_distinct function. Finally, the number of flights is just equal to the number of observations for each destination, which can be obtained with the n() function.
flights %>%
  group_by(dest) %>%
    summarise(num_planes = n_distinct(tail_num), num_flights = n())

## # A tibble: 105 x 3
##    dest  num_planes num_flights
##    <chr>      <int>       <int>
##  1 ABQ          108         254
##  2 ACK           58         265
##  3 ALB          172         439
##  4 ANC            6           8
##  5 ATL         1180       17215
##  6 AUS          993        2439
##  7 AVL          159         275
##  8 BDL          186         443
##  9 BGR           46         375
## 10 BHM           45         297
## # ... with 95 more rows
…
#This is the above function rewritten with piping. After each function is called, what it does will be described.
flights %>%
  
  group_by(year, month, day) %>% #This groups the flights by their date.
  
    select(arr_delay, dep_delay) %>% #The columns of arrival delay and departure delay are selected.
  
      summarise(arr = mean(arr_delay, na.rm = TRUE), dep = mean(dep_delay, na.rm = TRUE)) %>% #The average arrival delay and departure delay for each day are given by the summarise function, with NA entries removed.
  
        filter(arr > 30 | dep > 30) #Only the days where the arrival arrival delay or departure delay is greater than 30 are included.

## Adding missing grouping variables: `year`, `month`, `day`

## # A tibble: 49 x 5
## # Groups:   year, month [11]
##     year month   day   arr   dep
##    <int> <int> <int> <dbl> <dbl>
##  1  2013     1    16  34.2  24.6
##  2  2013     1    31  32.6  28.7
##  3  2013     2    11  36.3  39.1
##  4  2013     2    27  31.3  37.8
##  5  2013     3     8  85.9  83.5
##  6  2013     3    18  41.3  30.1
##  7  2013     4    10  38.4  33.0
##  8  2013     4    12  36.0  34.8
##  9  2013     4    18  36.0  34.9
## 10  2013     4    19  47.9  46.1
## # ... with 39 more rows
…
  mutate(date = as.Date(with(flights, paste(year, month, day,sep="-")), "%Y-%m-%d")) %>% #The mutate function adds a column that gives the date of each flight, using the three separate columns for year, month and day. This is not done in the original version of this function.
  
    filter(!is.na(dep_delay)) %>% #The observations where the departure delay is NA are filtered out.
      
        group_by(date, hour) %>% #Then the flights are grouped by date (which is now a column) and hour.
  
          summarise(delay = mean(dep_delay), n = n()) %>% #Then the average delay is given for each flight every hour of every day, along with the number of flights that hour. 
  
            filter(n > 10) #Finally, only the hours where there were at least 10 flights are included.

#To sum up: the function tells you, for every hour of every day recorded, the average departure delay and number of flights in that hour, as long as more than 10 flights left that hour.
hourly_delay

## # A tibble: 5,813 x 4
## # Groups:   date [365]
##    date        hour  delay     n
##    <date>     <dbl>  <dbl> <int>
##  1 2013-01-01  6.00  2.16     51
##  2 2013-01-01  7.00  3.51     49
##  3 2013-01-01  8.00  0.448    58
##  4 2013-01-01  9.00  5.34     56
##  5 2013-01-01 10.0   0.333    39
##  6 2013-01-01 11.0   3.19     37
##  7 2013-01-01 12.0   5.75     56
##  8 2013-01-01 13.0  20.4      54
##  9 2013-01-01 14.0  17.2      48
## 10 2013-01-01 15.0   7.77     66
## # ... with 5,803 more rows
…
Consider how to join information from the other datasets in the package with the current information. Is there a way to tell if weather affected the departure time? Ask yourself other questions about this data and then answer them below.

First we can see if the amount of precipitation has any effect on the departure time.

#inner_join(x, y): Return all rows from x where there are matching values in y, and all columns from x and y. If there are multiple matches between x and y, all combination of the matches are returned. (from the documentation of inner_join)
#This function allows us to join the flights data and the weather data, thus giving information about the weather at the time of each of the flights (some flights are not included because there was no weather data at that time).
flights_with_weather <- inner_join(flights, weather)

## Joining, by = c("year", "month", "day", "origin", "hour", "time_hour")

#To look at some basic data, we can filter the flights to the ones that had a departure delay of at least 30 minutes and any amount of precipitation.
filter(flights_with_weather, dep_delay > 30 & precip > 0)

## # A tibble: 6,246 x 28
##     year month   day dep_time sched_dep_time dep_delay arr_time
##    <dbl> <dbl> <int>    <int>          <int>     <dbl>    <int>
##  1  2013  1.00    11     1721           1635      46.0     1927
##  2  2013  1.00    11     1736           1700      36.0     1916
##  3  2013  1.00    11     1747           1708      39.0     2034
##  4  2013  1.00    11     1823           1750      33.0     1941
##  5  2013  1.00    11     1842           1655     107       2152
##  6  2013  1.00    11     1848           1810      38.0     2128
##  7  2013  1.00    11     1900           1735      85.0     2033
##  8  2013  1.00    11     1902           1605     177       2231
##  9  2013  1.00    11     1944           1900      44.0     2053
## 10  2013  1.00    11     1945           1904      41.0     2140
## # ... with 6,236 more rows, and 21 more variables: sched_arr_time <int>,
## #   arr_delay <dbl>, carrier <chr>, flight <int>, tail_num <chr>,
## #   origin <chr>, dest <chr>, air_time <dbl>, distance <dbl>, hour <dbl>,
## #   minute <dbl>, time_hour <dttm>, temp <dbl>, dewp <dbl>, humid <dbl>,
## #   wind_dir <dbl>, wind_speed <dbl>, wind_gust <dbl>, precip <dbl>,
## #   pressure <dbl>, visib <dbl>

#There are 6246 flights that had a greater than 30 minute delay when there was some rain.

#Perhaps we could group_by different precipitation values, and then see the average dep_delay for each of those values.
precip_delay <- flights_with_weather %>%
  group_by(precip) %>%
    summarise(avg_dep_delay = mean(dep_delay[!is.na(dep_delay)]))
precip_delay

## # A tibble: 55 x 2
##    precip avg_dep_delay
##     <dbl>         <dbl>
##  1 0               11.4
##  2 0.0100          29.8
##  3 0.0200          24.1
##  4 0.0300          28.7
##  5 0.0400          28.6
##  6 0.0500          29.4
##  7 0.0600          31.4
##  8 0.0700          27.7
##  9 0.0800          37.3
## 10 0.0900          40.2
## # ... with 45 more rows
…
 #It seems that the more engines a plane has, the slower it tends to travel. I don't know much about planes, so I'm not sure why this would be - maybe it's worth looking into. Also, the Rotorcraft planes have a higher average speed than the other types of plane.
 
 #We could also figure out which plane manufacturers have the longest average delays. We did something similar in question 10, so I'll skip explaining the details.
 flights_planes %>% 
  filter(!is.na(manufacturer)) %>% 
    group_by(manufacturer) %>% 
      summarise(average_delay = mean(arr_delay[!is.na(arr_delay)])) %>%
        arrange(desc(average_delay))

## # A tibble: 35 x 2
##    manufacturer           average_delay
##    <chr>                          <dbl>
##  1 AGUSTA SPA                     30.6 
##  2 CANADAIR                       16.7 
##  3 EMBRAER                        13.9 
##  4 FRIEDEMANN JON                 12.9 
##  5 AVIAT AIRCRAFT INC             12.3 
##  6 BARKER JACK L                  11.1 
##  7 LAMBERT RICHARD                 9.08
##  8 CESSNA                          8.62
##  9 ROBINSON HELICOPTER CO          8.19
## 10 CIRRUS DESIGN CORP              8.17
## # ... with 25 more rows
…
